Clean
…
demo1_df

## # A tibble: 9,693 × 6
##        id   age gender race               marital_status      education_level_20
##     <dbl> <dbl> <chr>  <chr>              <chr>               <chr>             
##  1 109266    29 Female Non-Hispanic Asian Never married       College graduate …
##  2 109267    21 Female Hispanic           Never married       Some college or A…
##  3 109268    18 Female Non-Hispanic White <NA>                <NA>              
##  4 109271    49 Male   Non-Hispanic White Never married       9-11th grade      
##  5 109273    36 Male   Non-Hispanic White Never married       Some college or A…
##  6 109274    68 Male   Other Race         Never married       Some college or A…
##  7 109282    76 Male   Non-Hispanic White Married/Living wit… College graduate …
##  8 109283    52 Male   Other Race         Widowed/Divorced/S… High school gradu…
##  9 109284    44 Female Hispanic           Married/Living wit… 9-11th grade      
## 10 109286    33 Female Non-Hispanic Asian Married/Living wit… College graduate …
## # ℹ 9,683 more rows
…
